[
["index.html", "A Basic R Book Preface", " A Basic R Book Isaac Quintanilla 2019-12-03 Preface I first started learning R while I was at CSUMB getting my undergraduate degree. During that time, I just finished completing an internship where I was analyzing survival data. During my internship, I conducted all my statistical analysis in SAS, and I really enjoyed it! I saw myself becoming a biostatistician and I wanted to learn more about statistics and SAS programming. However, I couldn’t really learn much more because SAS was/is super expensive! Essentially, I couldn’t really advance my learning because I didn’t have access to SAS. Fortunately, that I took a general statistics course which required me to learn R. I slowly realized that R was clearly a better choice just because anyone around the world, from whatever background you come from, can access it, and it can do everything SAS can do plus more. The only challenge with R is really learning it. However, there are many great resources online where you can learn R. Now you may be asking: why I am writing this book? Well many of the online resources are tough to navigate it. Some of the most basic concepts aren’t even explicitly explained. This is really challenging when you do not come from a programming background. I know R was made by statisticians for statisticians, but it does not seem friendly to epidemiologists or other professionals. I came from a biology background, and I found it difficult learning many of these programming concepts on my own. I am still learning many concepts on my own. Therefore, my goal is to write an accessible book to everyone that at least has internet access. I want to cover some important topics step by step so there isn’t any confusion. I am still have a long way in being an effective R programmer, but I hope this book will ease the way for non-programming professionals learn R. The main purpose of this book is to cover some of the basics of R programming. There are many topics I will not be able to cover due to either the complexity of the topic or it may be unnecessary. If you feel that there is a topic that is important and I did not cover it, please let me know. I want to develop a comprehensive book for epidemiologists and other professionals. "],
["resources.html", "0.1 Resources", " 0.1 Resources This section contains a list of resources where you can learn more about R programming. As I stated before, this book won’t cover everything. However, this book should hopefully prepare you for the other resources. 0.1.1 R Website The first resource is obviously the R website page. This is where you can download R. Additionally, there are mailing-lists you can sign-up, manuals, and other resources you can use. The website is www.r-project.org. 0.1.1.1 Installation Below is a basic installation guide. Depending on what operating system you have, you may need to install other packages (packages are just more software) to have R running smoothly. Go to the R Website and and go to the “Getting Started” section. This is usually the first thing you will see on the website. Click on the ‘download R’ link in this section. It will take you to a page called ‘CRAN Mirrors’. Select the mirror that is closest to where you live. Think of a mirror as the closest server to you to access R. Once you select a mirror, go to the ‘Download and Install R’ and choose your operating system. If on Mac, download and install, choose from the ‘Latest release’. If on Windows, click on ‘install R for the first time’ link and click on the ‘Download R X.X.X for Windows’ link to install. If on Linux, it is more complicated and you will need to be comfortable using a terminal. I recommend looking online for some videos. The main ideas to install R are: Updating your sources.list. Obtaining a key Updating your repositories. Installing r-base and r-base-dev 0.1.2 RStudio R is a language that tells a computer what to do. It is not exactly an application that you can click on and start conducting statistical analysis. For example, I can write up an R script in a text application, and the run it in a terminal to get the results that I want. Therefore, the way you conduct statistical analysis on the computer can be done in multiple ways. When you install R, there is an R GUI (Graphical User Interface) where you can write up R Code and analyze data. On a side note, I know the R GUI exists for Windows, I am not sure if it exists for Mac, and I know it does not exist on Linux. Anyways, the R GUI is perfectly capable of doing everything you need to do. You don’t have to run anything in a terminal. However, it is limited in the features it provides and is looks like you are using something from the 90’s. The same way that SAS looks like. This is where RStudio comes in. RStudio is an IDE (integrated development environment) that enhances your R experience. It provides a console (essentially a terminal), a script editor (how to write your R Code), environment window (tells you what you have created), and so much more. While you can do everything I will talk about on the R GUI, I highly recommend installing RStudio!. To install RStudio, go to its website www.rstudio.com 0.1.2.1 Installation Installing RStudio is much simpler than installing R. However, you must install R before you can install RStudio. Here are some of the basic steps to install RStudio. Go to the website, and hover your mouse over the products tab and then click RStudio from the product. Scroll down until you see a box that says ‘Download RStudio Desktop’. Scroll down to the section that says ‘Installers for Supported Platforms’. Click on your operating system, download and install. 0.1.2.2 Documentation The RStudio website has many documents and cheat sheets for R programming. Go to the resources tab and see what they have. RStudio is really powerful and can do many things that you may be interested in. Also, look under the products tab and click on packages. For this book, I will focus on using these packages which makes programming a bit easier. If you would like to use base R function, I recommend looking through the website for those resources, or try the “swirl” package. 0.1.3 Swirl R Package The “swirl” package is an excellent R package designed to teach R while you are using R. The ‘swirl’ package has ‘R courses’ that will guide you through examples. You can also download other courses to learn R. After you read this book and you want to learn more. I highly recommend using the swirl package. You can visit their website: swirlstats.com. The website provides excellent instructions to install R as well. 0.1.4 GitHub GitHub is a repository where programmers put their code for other people to collaborate with. There are many R programmers using GitHub, and I am beginning to use GitHub myself. You can go to GitHub’s website at github.com, or you can visit my GitHub page github.com/iquintanilla. "]
]
